{"failedCount":0,"prefixedPath":"classpath:users\/get\/user-get.feature","packageQualifiedName":"users.get.user-get","loopIndex":-1,"relativePath":"users\/get\/user-get.feature","scenarioResults":[{"sectionIndex":0,"stepResults":[{"result":{"nanos":2124000,"millis":2.124,"status":"passed"},"step":{"line":4,"prefix":"Given","index":0,"text":"url \"https:\/\/reqres.in\/api\/users\/2\""}},{"result":{"nanos":536182500,"millis":536.1825,"status":"passed"},"step":{"line":5,"prefix":"When","index":1,"text":"method get"},"stepLog":"15:18:22.631 request:\n1 > GET https:\/\/reqres.in\/api\/users\/2\n1 > Host: reqres.in\n1 > Connection: Keep-Alive\n1 > User-Agent: Apache-HttpClient\/4.5.13 (Java\/17.0.8)\n1 > Accept-Encoding: gzip,deflate\n\n\n15:18:22.976 response time in milliseconds: 342\n1 < 200\n1 < Date: Fri, 13 Sep 2024 20:18:23 GMT\n1 < Content-Type: application\/json; charset=utf-8\n1 < Transfer-Encoding: chunked\n1 < Connection: keep-alive\n1 < Report-To: {\"group\":\"heroku-nel\",\"max_age\":3600,\"endpoints\":[{\"url\":\"https:\/\/nel.heroku.com\/reports?ts=1726167006&sid=c4c9725f-1ab0-44d8-820f-430df2718e11&s=qyq1kIV598lnS9mOGfzwYT8NlJLddqAGi8u3ZGvo%2Bn4%3D\"}]}\n1 < Reporting-Endpoints: heroku-nel=https:\/\/nel.heroku.com\/reports?ts=1726167006&sid=c4c9725f-1ab0-44d8-820f-430df2718e11&s=qyq1kIV598lnS9mOGfzwYT8NlJLddqAGi8u3ZGvo%2Bn4%3D\n1 < Nel: {\"report_to\":\"heroku-nel\",\"max_age\":3600,\"success_fraction\":0.005,\"failure_fraction\":0.05,\"response_headers\":[\"Via\"]}\n1 < X-Powered-By: Express\n1 < Access-Control-Allow-Origin: *\n1 < Etag: W\/\"118-pbdwwFo9SKNhD3Lx5iHJyngpq00\"\n1 < Via: 1.1 vegur\n1 < Cache-Control: max-age=14400\n1 < CF-Cache-Status: HIT\n1 < Age: 1965\n1 < Vary: Accept-Encoding\n1 < Server: cloudflare\n1 < CF-RAY: 8c2ad380bcb20341-MIA\n{\"data\":{\"id\":2,\"email\":\"janet.weaver@reqres.in\",\"first_name\":\"Janet\",\"last_name\":\"Weaver\",\"avatar\":\"https:\/\/reqres.in\/img\/faces\/2-image.jpg\"},\"support\":{\"url\":\"https:\/\/reqres.in\/#support-heading\",\"text\":\"To keep ReqRes free, contributions towards server costs are appreciated!\"}}\n\n"},{"result":{"nanos":28900,"millis":0.0289,"status":"passed"},"step":{"line":6,"prefix":"Then","index":2,"text":"status 200"}}],"executorName":"pool-1-thread-2","line":3,"name":"Get a user","description":"","durationMillis":538.3354,"startTime":1726258702427,"failed":false,"refId":"[1:3]","endTime":1726258702979,"exampleIndex":-1},{"sectionIndex":1,"stepResults":[{"result":{"nanos":629200,"millis":0.6292,"status":"passed"},"step":{"comments":["#* def jsonResponse = read ('..\/get\/json\/list_of_users.json')"],"line":10,"prefix":"Given","index":0,"text":"url \"https:\/\/reqres.in\/api\/users?page=1\""}},{"result":{"nanos":228185200,"millis":228.1852,"status":"passed"},"step":{"line":11,"prefix":"When","index":1,"text":"method get"},"stepLog":"15:18:22.986 request:\n1 > GET https:\/\/reqres.in\/api\/users?page=1\n1 > Host: reqres.in\n1 > Connection: Keep-Alive\n1 > User-Agent: Apache-HttpClient\/4.5.13 (Java\/17.0.8)\n1 > Accept-Encoding: gzip,deflate\n\n\n15:18:23.211 response time in milliseconds: 223\n1 < 200\n1 < Date: Fri, 13 Sep 2024 20:18:23 GMT\n1 < Content-Type: application\/json; charset=utf-8\n1 < Transfer-Encoding: chunked\n1 < Connection: keep-alive\n1 < Report-To: {\"group\":\"heroku-nel\",\"max_age\":3600,\"endpoints\":[{\"url\":\"https:\/\/nel.heroku.com\/reports?ts=1726167905&sid=c4c9725f-1ab0-44d8-820f-430df2718e11&s=SmBu1mQ8UPvqtyaKaeVAV0LKIm1bEMbK4hmAq5dHdv4%3D\"}]}\n1 < Reporting-Endpoints: heroku-nel=https:\/\/nel.heroku.com\/reports?ts=1726167905&sid=c4c9725f-1ab0-44d8-820f-430df2718e11&s=SmBu1mQ8UPvqtyaKaeVAV0LKIm1bEMbK4hmAq5dHdv4%3D\n1 < Nel: {\"report_to\":\"heroku-nel\",\"max_age\":3600,\"success_fraction\":0.005,\"failure_fraction\":0.05,\"response_headers\":[\"Via\"]}\n1 < X-Powered-By: Express\n1 < Access-Control-Allow-Origin: *\n1 < Etag: W\/\"3e4-2RLXvr5wTg9YQ6aH95CkYoFNuO8\"\n1 < Via: 1.1 vegur\n1 < Cache-Control: max-age=14400\n1 < CF-Cache-Status: HIT\n1 < Age: 60\n1 < Vary: Accept-Encoding\n1 < Server: cloudflare\n1 < CF-RAY: 8c2ad382495cda27-MIA\n{\"page\":1,\"per_page\":6,\"total\":12,\"total_pages\":2,\"data\":[{\"id\":1,\"email\":\"george.bluth@reqres.in\",\"first_name\":\"George\",\"last_name\":\"Bluth\",\"avatar\":\"https:\/\/reqres.in\/img\/faces\/1-image.jpg\"},{\"id\":2,\"email\":\"janet.weaver@reqres.in\",\"first_name\":\"Janet\",\"last_name\":\"Weaver\",\"avatar\":\"https:\/\/reqres.in\/img\/faces\/2-image.jpg\"},{\"id\":3,\"email\":\"emma.wong@reqres.in\",\"first_name\":\"Emma\",\"last_name\":\"Wong\",\"avatar\":\"https:\/\/reqres.in\/img\/faces\/3-image.jpg\"},{\"id\":4,\"email\":\"eve.holt@reqres.in\",\"first_name\":\"Eve\",\"last_name\":\"Holt\",\"avatar\":\"https:\/\/reqres.in\/img\/faces\/4-image.jpg\"},{\"id\":5,\"email\":\"charles.morris@reqres.in\",\"first_name\":\"Charles\",\"last_name\":\"Morris\",\"avatar\":\"https:\/\/reqres.in\/img\/faces\/5-image.jpg\"},{\"id\":6,\"email\":\"tracey.ramos@reqres.in\",\"first_name\":\"Tracey\",\"last_name\":\"Ramos\",\"avatar\":\"https:\/\/reqres.in\/img\/faces\/6-image.jpg\"}],\"support\":{\"url\":\"https:\/\/reqres.in\/#support-heading\",\"text\":\"To keep ReqRes free, contributions towards server costs are appreciated!\"}}\n\n"},{"result":{"nanos":16000,"millis":0.016,"status":"passed"},"step":{"line":12,"prefix":"Then","index":2,"text":"status 200"}}],"executorName":"pool-1-thread-2","line":8,"name":"Get a list of user","description":"","durationMillis":228.8304,"startTime":1726258702984,"failed":false,"refId":"[2:8]","endTime":1726258703213,"exampleIndex":-1}],"callDepth":0,"name":"Get user on regres","description":"","resultDate":"2024-09-13 03:18:23 p. m.","durationMillis":767.1658,"passedCount":2}